ml-models-exercise – Marco Reina Data Analysis Portfolio
…
#Lasso grid tune object
lasso_tune <- tune_grid(
  lasso_workflow,
  resamples = lasso_app,
  grid = lasso_grid,
  metrics = metric_set(rmse),
  control = control_grid(save_pred = TRUE)
)

#print predictions
collect_predictions(lasso_tune)

# A tibble: 6,000 × 6
   .pred id           Y  .row penalty .config         
   <dbl> <chr>    <dbl> <int>   <dbl> <chr>           
 1 1567. Apparent 2691.     1 0.00001 pre0_mod01_post0
 2 1856. Apparent 2639.     2 0.00001 pre0_mod01_post0
 3 2002. Apparent 2150.     3 0.00001 pre0_mod01_post0
 4 1658. Apparent 1789.     4 0.00001 pre0_mod01_post0
 5 2018. Apparent 3126.     5 0.00001 pre0_mod01_post0
 6 1930. Apparent 2337.     6 0.00001 pre0_mod01_post0
 7 1610. Apparent 3007.     7 0.00001 pre0_mod01_post0
 8 2277. Apparent 2796.     8 0.00001 pre0_mod01_post0
 9 2282. Apparent 3866.     9 0.00001 pre0_mod01_post0
10 1290. Apparent 1762.    10 0.00001 pre0_mod01_post0
# ℹ 5,990 more rows
…
→ B | warning: ! 7 columns were requested but there were 5 predictors in the data.
               ℹ 5 predictors will be used.

There were issues with some computations   A: x1
There were issues with some computations   A: x2   B: x1
There were issues with some computations   A: x3   B: x2
There were issues with some computations   A: x4   B: x4
There were issues with some computations   A: x6   B: x5
There were issues with some computations   A: x7   B: x6
There were issues with some computations   A: x7   B: x7

#print predictions
collect_predictions(rf_tune)

# A tibble: 5,880 × 7
   .pred id           Y  .row  mtry min_n .config         
   <dbl> <chr>    <dbl> <int> <int> <int> <chr>           
 1 2237. Apparent 2691.     1     1     1 pre0_mod01_post0
 2 2259. Apparent 2639.     2     1     1 pre0_mod01_post0
 3 1980. Apparent 2150.     3     1     1 pre0_mod01_post0
 4 1790. Apparent 1789.     4     1     1 pre0_mod01_post0
 5 2591. Apparent 3126.     5     1     1 pre0_mod01_post0
 6 1984. Apparent 2337.     6     1     1 pre0_mod01_post0
 7 2249. Apparent 3007.     7     1     1 pre0_mod01_post0
 8 2382. Apparent 2796.     8     1     1 pre0_mod01_post0
 9 2864. Apparent 3866.     9     1     1 pre0_mod01_post0
10 1845. Apparent 1762.    10     1     1 pre0_mod01_post0
# ℹ 5,870 more rows
…
#Lasso grid tune object
lasso_tune_cv <- tune_grid(
  lasso_workflow_cv,
  resamples = resamples_cv,
  grid = lasso_grid,
  metrics = metric_set(rmse),
  control = control_grid(save_pred = TRUE)
)

#print predictions
collect_predictions(lasso_tune_cv)

# A tibble: 30,000 × 7
   .pred id      id2       Y  .row penalty .config         
   <dbl> <chr>   <chr> <dbl> <int>   <dbl> <chr>           
 1 1785. Repeat1 Fold1 1789.     4 0.00001 pre0_mod01_post0
 2 2039. Repeat1 Fold1 2337.     6 0.00001 pre0_mod01_post0
 3 1229. Repeat1 Fold1 1762.    10 0.00001 pre0_mod01_post0
 4 2687. Repeat1 Fold1 1801.    14 0.00001 pre0_mod01_post0
 5 2408. Repeat1 Fold1 2155.    20 0.00001 pre0_mod01_post0
 6 1993. Repeat1 Fold1 2085.    24 0.00001 pre0_mod01_post0
 7 3065. Repeat1 Fold1 5607.    30 0.00001 pre0_mod01_post0
 8 3554. Repeat1 Fold1 4493.    32 0.00001 pre0_mod01_post0
 9 3445. Repeat1 Fold1 2746.    36 0.00001 pre0_mod01_post0
10 2928. Repeat1 Fold1 3310.    46 0.00001 pre0_mod01_post0
# ℹ 29,990 more rows
…
#print predictions
collect_predictions(rf_tune_cv)

# A tibble: 29,400 × 8
   .pred id      id2       Y  .row  mtry min_n .config         
   <dbl> <chr>   <chr> <dbl> <int> <int> <int> <chr>           
 1 1889. Repeat1 Fold1 1789.     4     1     1 pre0_mod01_post0
 2 2004. Repeat1 Fold1 2337.     6     1     1 pre0_mod01_post0
 3 1821. Repeat1 Fold1 1762.    10     1     1 pre0_mod01_post0
 4 2673. Repeat1 Fold1 1801.    14     1     1 pre0_mod01_post0
 5 2466. Repeat1 Fold1 2155.    20     1     1 pre0_mod01_post0
 6 2235. Repeat1 Fold1 2085.    24     1     1 pre0_mod01_post0
 7 2710. Repeat1 Fold1 5607.    30     1     1 pre0_mod01_post0
 8 3018. Repeat1 Fold1 4493.    32     1     1 pre0_mod01_post0
 9 2927. Repeat1 Fold1 2746.    36     1     1 pre0_mod01_post0
10 2900. Repeat1 Fold1 3310.    46     1     1 pre0_mod01_post0
# ℹ 29,390 more rows
…
