tidytuesday-exercise – Marco Reina Data Analysis Portfolio
…
freq_df <- trends_df %>%
  group_by(geo) %>%
  summarise(count = sum(count, na.rm = TRUE), .groups = "drop") %>%
    arrange(desc(count))

freq_df

# A tibble: 33 × 2
   geo      count
   <chr>    <dbl>
 1 150, -40  7749
 2 160, -40  6764
 3 170, -40  3828
 4 140, -40  3214
 5 160, -50  3164
 6 170, -50  1814
 7 150, -50  1455
 8 140, -50   517
 9 130, -40   364
10 120, -40   226
# ℹ 23 more rows
…
MODELING

Now let’s see if we can predict spread based on known predictors

LM approach

#Making number variables into factors
DIO_df %>%
  mutate(
    year = as.factor(year),
    month = as.factor(month)
  )

# A tibble: 14,987 × 15
   record_id count date       latitude longitude season aggr_spc year  month
       <dbl> <dbl> <date>        <dbl>     <dbl> <chr>     <dbl> <fct> <fct>
 1   1083001     6 1975-10-15    -45.9      165. spring        4 1975  10   
 2   1083001     2 1975-10-15    -45.9      165. spring        2 1975  10   
 3   1084001    10 1975-11-03    -35.5      125  spring        2 1975  11   
 4   1084001     2 1975-11-03    -35.5      125  spring        2 1975  11   
 5   1084002    10 1975-11-04    -37.7      132. spring        2 1975  11   
 6   1084002     2 1975-11-04    -37.7      132. spring        2 1975  11   
 7   1084003    14 1975-11-08    -40        162  spring        2 1975  11   
 8   1084003     4 1975-11-08    -40        162  spring        2 1975  11   
 9   1086003     4 1975-11-17    -35.2      168  spring        2 1975  11   
10   1086003     2 1975-11-17    -35.2      168  spring        2 1975  11   
# ℹ 14,977 more rows
# ℹ 6 more variables: lat_bin <dbl>, lon_bin <dbl>, spreadkm <dbl>,
#   spread_rounded <dbl>, wave <dbl>, spread_log2 <dbl>
…
# Calculate the "Final" RMSE
test_results %>%  
  metrics(truth = spread_log2, estimate = .pred)

# A tibble: 3 × 3
  .metric .estimator .estimate
  <chr>   <chr>          <dbl>
1 rmse    standard      0.0912
2 rsq     standard      0.994 
3 mae     standard      0.0484

test_results

# A tibble: 3,747 × 3
   spread_log2 .pred   .resid
         <dbl> <dbl>    <dbl>
 1       10.5  10.5  -0.0131 
 2       11.1  10.9  -0.235  
 3       11.1  10.9  -0.234  
 4       10.00 10.0   0.0188 
 5       10.00 10.0   0.0450 
 6       10.7  10.7  -0.0166 
 7       10.7  10.7  -0.0184 
 8        9.97  9.97 -0.00585
 9        8.38  8.31 -0.0649 
10        9.99 10.0   0.0341 
# ℹ 3,737 more rows
…
